{
  "pages": {
    "Page 3": [
      "VerifyMobile",
      "Transactions",
      "HomeScreen",
      "RedeemScreen",
      "OTPWaiting",
      "A_2b1_OTP_FilledSS",
      "OTPFilledNew",
      "AddVPA",
      "A_3a_Add_VPA_TypingSS",
      "A_3a_Add_VPA_FilledSS"
    ]
  },
  "artboards": [
    "VerifyMobile",
    "Transactions",
    "HomeScreen",
    "RedeemScreen",
    "OTPWaiting",
    "A_2b1_OTP_FilledSS",
    "OTPFilledNew",
    "AddVPA",
    "A_3a_Add_VPA_TypingSS",
    "A_3a_Add_VPA_FilledSS"
  ]
}